HarvardArchNoPipeline/simulation/qsim/HarvardArchNoPipeline.msim.vcd
$comment
	File created using the following command:
		vcd file HarvardArchNoPipeline.msim.vcd -direction
$end
$date
	Wed May 20 17:50:45 2020
$end
$version
	ModelSim Version 10.5b
$end
$timescale
	1ps
$end

$scope module multiplier_min_gates_vlg_vec_tst $end
$var reg 16 ! A [15:0] $end
$var reg 16 " B [15:0] $end
$var wire 1 # P [15] $end
$var wire 1 $ P [14] $end
$var wire 1 % P [13] $end
$var wire 1 & P [12] $end
$var wire 1 ' P [11] $end
$var wire 1 ( P [10] $end
$var wire 1 ) P [9] $end
$var wire 1 * P [8] $end
$var wire 1 + P [7] $end
$var wire 1 , P [6] $end
$var wire 1 - P [5] $end
$var wire 1 . P [4] $end
$var wire 1 / P [3] $end
$var wire 1 0 P [2] $end
$var wire 1 1 P [1] $end
$var wire 1 2 P [0] $end

$scope module i1 $end
$var wire 1 3 gnd $end
$var wire 1 4 vcc $end
$var wire 1 5 unknown $end
$var tri1 1 6 devclrn $end
$var tri1 1 7 devpor $end
$var tri1 1 8 devoe $end
$var wire 1 9 P[15]~output_o $end
$var wire 1 : P[14]~output_o $end
$var wire 1 ; P[13]~output_o $end
$var wire 1 < P[12]~output_o $end
$var wire 1 = P[11]~output_o $end
$var wire 1 > P[10]~output_o $end
$var wire 1 ? P[9]~output_o $end
$var wire 1 @ P[8]~output_o $end
$var wire 1 A P[7]~output_o $end
$var wire 1 B P[6]~output_o $end
$var wire 1 C P[5]~output_o $end
$var wire 1 D P[4]~output_o $end
$var wire 1 E P[3]~output_o $end
$var wire 1 F P[2]~output_o $end
$var wire 1 G P[1]~output_o $end
$var wire 1 H P[0]~output_o $end
$var wire 1 I B[8]~input_o $end
$var wire 1 J A[4]~input_o $end
$var wire 1 K inst8|inst|inst1~combout $end
$var wire 1 L B[5]~input_o $end
$var wire 1 M A[5]~input_o $end
$var wire 1 N inst5|inst|inst2~combout $end
$var wire 1 O B[2]~input_o $end
$var wire 1 P A[6]~input_o $end
$var wire 1 Q inst1|inst|inst3~combout $end
$var wire 1 R B[0]~input_o $end
$var wire 1 S A[8]~input_o $end
$var wire 1 T inst|inst5~combout $end
$var wire 1 U B[1]~input_o $end
$var wire 1 V A[7]~input_o $end
$var wire 1 W inst2|inst|inst4~combout $end
$var wire 1 X inst|inst4~combout $end
$var wire 1 Y inst2|inst|inst3~combout $end
$var wire 1 Z inst2|inst8|inst3~combout $end
$var wire 1 [ inst|inst2~combout $end
$var wire 1 \ inst2|inst|inst1~combout $end
$var wire 1 ] inst|inst1~combout $end
$var wire 1 ^ A[3]~input_o $end
$var wire 1 _ inst2|inst|inst~combout $end
$var wire 1 ` A[0]~input_o $end
$var wire 1 a A[2]~input_o $end
$var wire 1 b A[1]~input_o $end
$var wire 1 c inst2|inst5|inst5~0_combout $end
$var wire 1 d inst2|inst8|inst5~0_combout $end
$var wire 1 e inst2|inst8|inst5~1_combout $end
$var wire 1 f inst2|inst10|inst1~combout $end
$var wire 1 g inst1|inst|inst2~combout $end
$var wire 1 h inst2|inst9|inst1~0_combout $end
$var wire 1 i inst2|inst9|inst1~combout $end
$var wire 1 j inst1|inst|inst1~combout $end
$var wire 1 k inst2|inst8|inst1~0_combout $end
$var wire 1 l inst2|inst8|inst1~combout $end
$var wire 1 m inst1|inst|inst~combout $end
$var wire 1 n inst2|inst7|inst1~0_combout $end
$var wire 1 o inst2|inst7|inst1~combout $end
$var wire 1 p inst1|inst|inst11~combout $end
$var wire 1 q inst2|inst6|inst1~0_combout $end
$var wire 1 r inst1|inst4|inst5~0_combout $end
$var wire 1 s inst2|inst5|inst1~combout $end
$var wire 1 t inst1|inst4|inst2~0_combout $end
$var wire 1 u inst1|inst5|inst5~0_combout $end
$var wire 1 v inst1|inst7|inst5~0_combout $end
$var wire 1 w inst1|inst9|inst5~0_combout $end
$var wire 1 x B[3]~input_o $end
$var wire 1 y inst3|inst|inst3~combout $end
$var wire 1 z inst2|inst10|inst5~0_combout $end
$var wire 1 { inst1|inst|inst4~combout $end
$var wire 1 | A[9]~input_o $end
$var wire 1 } inst|inst6~combout $end
$var wire 1 ~ inst2|inst|inst5~combout $end
$var wire 1 !! inst2|inst11|inst1~0_combout $end
$var wire 1 "! inst1|inst10|inst1~0_combout $end
$var wire 1 #! inst3|inst|inst2~combout $end
$var wire 1 $! inst1|inst9|inst1~combout $end
$var wire 1 %! inst3|inst|inst1~combout $end
$var wire 1 &! inst1|inst8|inst1~0_combout $end
$var wire 1 '! inst3|inst|inst~combout $end
$var wire 1 (! inst1|inst7|inst1~combout $end
$var wire 1 )! inst3|inst|inst11~combout $end
$var wire 1 *! inst1|inst6|inst1~0_combout $end
$var wire 1 +! inst2|inst4|inst1~combout $end
$var wire 1 ,! inst3|inst4|inst5~0_combout $end
$var wire 1 -! inst1|inst5|inst1~combout $end
$var wire 1 .! inst3|inst4|inst2~0_combout $end
$var wire 1 /! inst3|inst5|inst5~combout $end
$var wire 1 0! inst3|inst7|inst5~0_combout $end
$var wire 1 1! inst3|inst9|inst5~0_combout $end
$var wire 1 2! B[4]~input_o $end
$var wire 1 3! inst4|inst|inst3~combout $end
$var wire 1 4! inst1|inst|inst5~combout $end
$var wire 1 5! A[10]~input_o $end
$var wire 1 6! inst|inst7~combout $end
$var wire 1 7! inst2|inst|inst6~combout $end
$var wire 1 8! inst2|inst12|inst1~combout $end
$var wire 1 9! inst2|inst11|inst1~combout $end
$var wire 1 :! inst3|inst|inst4~combout $end
$var wire 1 ;! inst3|inst10|inst1~0_combout $end
$var wire 1 <! inst4|inst|inst2~combout $end
$var wire 1 =! inst3|inst9|inst1~combout $end
$var wire 1 >! inst4|inst|inst1~combout $end
$var wire 1 ?! inst3|inst8|inst1~0_combout $end
$var wire 1 @! inst4|inst|inst~combout $end
$var wire 1 A! inst3|inst7|inst1~combout $end
$var wire 1 B! inst4|inst|inst11~combout $end
$var wire 1 C! inst3|inst6|inst1~0_combout $end
$var wire 1 D! inst1|inst4|inst1~combout $end
$var wire 1 E! inst4|inst4|inst5~0_combout $end
$var wire 1 F! inst3|inst5|inst1~combout $end
$var wire 1 G! inst4|inst4|inst2~0_combout $end
$var wire 1 H! inst4|inst5|inst5~combout $end
$var wire 1 I! inst4|inst7|inst5~0_combout $end
$var wire 1 J! inst4|inst9|inst1~combout $end
$var wire 1 K! inst5|inst|inst1~combout $end
$var wire 1 L! inst4|inst8|inst1~combout $end
$var wire 1 M! inst5|inst|inst~combout $end
$var wire 1 N! inst4|inst7|inst1~combout $end
$var wire 1 O! inst5|inst|inst11~combout $end
$var wire 1 P! inst4|inst6|inst1~combout $end
$var wire 1 Q! inst4|inst4|inst5~1_combout $end
$var wire 1 R! inst3|inst4|inst1~combout $end
$var wire 1 S! inst4|inst4|inst1~combout $end
$var wire 1 T! inst4|inst5|inst1~0_combout $end
$var wire 1 U! inst5|inst4|inst5~0_combout $end
$var wire 1 V! inst5|inst6|inst5~0_combout $end
$var wire 1 W! inst5|inst8|inst5~0_combout $end
$var wire 1 X! B[6]~input_o $end
$var wire 1 Y! inst6|inst|inst2~combout $end
$var wire 1 Z! inst4|inst|inst4~combout $end
$var wire 1 [! inst1|inst11|inst5~0_combout $end
$var wire 1 \! inst3|inst|inst5~combout $end
$var wire 1 ]! inst2|inst11|inst5~0_combout $end
$var wire 1 ^! inst1|inst|inst6~combout $end
$var wire 1 _! A[11]~input_o $end
$var wire 1 `! inst2|inst13|inst1~0_combout $end
$var wire 1 a! inst1|inst12|inst1~0_combout $end
$var wire 1 b! inst1|inst11|inst1~combout $end
$var wire 1 c! inst3|inst11|inst1~combout $end
$var wire 1 d! inst4|inst9|inst5~0_combout $end
$var wire 1 e! inst5|inst|inst3~combout $end
$var wire 1 f! inst5|inst9|inst1~0_combout $end
$var wire 1 g! inst6|inst|inst1~combout $end
$var wire 1 h! inst5|inst8|inst1~combout $end
$var wire 1 i! inst6|inst|inst~combout $end
$var wire 1 j! inst5|inst7|inst1~0_combout $end
$var wire 1 k! inst6|inst|inst11~combout $end
$var wire 1 l! inst5|inst6|inst1~combout $end
$var wire 1 m! inst5|inst4|inst1~0_combout $end
$var wire 1 n! inst5|inst4|inst1~combout $end
$var wire 1 o! inst5|inst5|inst1~0_combout $end
$var wire 1 p! inst6|inst4|inst5~0_combout $end
$var wire 1 q! inst6|inst6|inst5~0_combout $end
$var wire 1 r! inst6|inst8|inst5~0_combout $end
$var wire 1 s! B[7]~input_o $end
$var wire 1 t! inst7|inst|inst2~combout $end
$var wire 1 u! inst5|inst|inst4~combout $end
$var wire 1 v! inst3|inst11|inst5~0_combout $end
$var wire 1 w! inst4|inst|inst5~combout $end
$var wire 1 x! inst1|inst|inst7~combout $end
$var wire 1 y! A[12]~input_o $end
$var wire 1 z! inst|inst13~combout $end
$var wire 1 {! inst2|inst|inst12~combout $end
$var wire 1 |! inst2|inst13|inst3~combout $end
$var wire 1 }! inst2|inst13|inst5~0_combout $end
$var wire 1 ~! inst2|inst13|inst5~1_combout $end
$var wire 1 !" inst2|inst14|inst1~combout $end
$var wire 1 "" inst2|inst13|inst1~combout $end
$var wire 1 #" inst3|inst|inst6~combout $end
$var wire 1 $" inst3|inst12|inst1~0_combout $end
$var wire 1 %" inst4|inst11|inst1~combout $end
$var wire 1 &" inst4|inst10|inst1~combout $end
$var wire 1 '" inst6|inst|inst3~combout $end
$var wire 1 (" inst6|inst9|inst1~0_combout $end
$var wire 1 )" inst7|inst|inst1~combout $end
$var wire 1 *" inst6|inst8|inst1~combout $end
$var wire 1 +" inst7|inst|inst~combout $end
$var wire 1 ," inst6|inst7|inst1~0_combout $end
$var wire 1 -" inst7|inst|inst11~combout $end
$var wire 1 ." inst6|inst6|inst1~combout $end
$var wire 1 /" inst6|inst4|inst1~0_combout $end
$var wire 1 0" inst6|inst4|inst1~combout $end
$var wire 1 1" inst6|inst5|inst1~0_combout $end
$var wire 1 2" inst7|inst4|inst5~0_combout $end
$var wire 1 3" inst7|inst6|inst5~0_combout $end
$var wire 1 4" inst7|inst8|inst1~combout $end
$var wire 1 5" inst8|inst|inst~combout $end
$var wire 1 6" inst7|inst7|inst1~combout $end
$var wire 1 7" inst8|inst|inst11~combout $end
$var wire 1 8" inst7|inst4|inst1~0_combout $end
$var wire 1 9" inst7|inst4|inst1~combout $end
$var wire 1 :" inst8|inst|inst9~combout $end
$var wire 1 ;" inst8|inst|inst10~combout $end
$var wire 1 <" inst8|inst4|inst5~0_combout $end
$var wire 1 =" inst8|inst4|inst2~0_combout $end
$var wire 1 >" inst8|inst4|inst5~1_combout $end
$var wire 1 ?" inst7|inst6|inst1~combout $end
$var wire 1 @" inst8|inst5|inst5~0_combout $end
$var wire 1 A" inst8|inst7|inst5~0_combout $end
$var wire 1 B" B[9]~input_o $end
$var wire 1 C" inst9|inst|inst1~combout $end
$var wire 1 D" inst7|inst|inst3~combout $end
$var wire 1 E" inst5|inst10|inst5~0_combout $end
$var wire 1 F" inst6|inst|inst4~combout $end
$var wire 1 G" inst4|inst|inst6~combout $end
$var wire 1 H" inst1|inst|inst12~combout $end
$var wire 1 I" A[13]~input_o $end
$var wire 1 J" inst2|inst15|inst1~0_combout $end
$var wire 1 K" inst1|inst14|inst1~0_combout $end
$var wire 1 L" inst1|inst14|inst1~combout $end
$var wire 1 M" inst1|inst13|inst1~combout $end
$var wire 1 N" inst3|inst13|inst1~combout $end
$var wire 1 O" inst4|inst11|inst5~0_combout $end
$var wire 1 P" inst5|inst|inst5~combout $end
$var wire 1 Q" inst5|inst11|inst1~0_combout $end
$var wire 1 R" inst5|inst10|inst1~combout $end
$var wire 1 S" inst6|inst10|inst1~combout $end
$var wire 1 T" inst7|inst8|inst5~0_combout $end
$var wire 1 U" inst8|inst|inst2~combout $end
$var wire 1 V" inst8|inst8|inst1~0_combout $end
$var wire 1 W" inst9|inst|inst~combout $end
$var wire 1 X" inst8|inst7|inst1~combout $end
$var wire 1 Y" inst9|inst|inst11~combout $end
$var wire 1 Z" inst9|inst|inst9~combout $end
$var wire 1 [" inst8|inst4|inst1~0_combout $end
$var wire 1 \" inst9|inst|inst10~combout $end
$var wire 1 ]" inst9|inst4|inst5~0_combout $end
$var wire 1 ^" inst9|inst4|inst2~0_combout $end
$var wire 1 _" inst9|inst4|inst2~1_combout $end
$var wire 1 `" inst9|inst4|inst5~1_combout $end
$var wire 1 a" inst8|inst6|inst1~0_combout $end
$var wire 1 b" inst9|inst5|inst5~0_combout $end
$var wire 1 c" inst9|inst7|inst1~combout $end
$var wire 1 d" B[10]~input_o $end
$var wire 1 e" inst10|inst|inst~combout $end
$var wire 1 f" inst10|inst|inst11~combout $end
$var wire 1 g" inst10|inst|inst9~combout $end
$var wire 1 h" inst9|inst4|inst1~0_combout $end
$var wire 1 i" inst10|inst|inst10~combout $end
$var wire 1 j" inst10|inst4|inst5~0_combout $end
$var wire 1 k" inst9|inst5|inst1~0_combout $end
$var wire 1 l" inst10|inst4|inst2~0_combout $end
$var wire 1 m" inst10|inst4|inst2~1_combout $end
$var wire 1 n" inst10|inst4|inst5~1_combout $end
$var wire 1 o" inst9|inst6|inst1~0_combout $end
$var wire 1 p" inst10|inst6|inst1~0_combout $end
$var wire 1 q" B[11]~input_o $end
$var wire 1 r" inst11|inst|inst11~combout $end
$var wire 1 s" inst11|inst|inst9~combout $end
$var wire 1 t" inst10|inst4|inst1~0_combout $end
$var wire 1 u" inst11|inst|inst10~combout $end
$var wire 1 v" inst11|inst4|inst5~0_combout $end
$var wire 1 w" inst10|inst5|inst1~0_combout $end
$var wire 1 x" inst11|inst4|inst2~0_combout $end
$var wire 1 y" inst11|inst4|inst2~1_combout $end
$var wire 1 z" inst11|inst5|inst1~0_combout $end
$var wire 1 {" inst11|inst5|inst1~combout $end
$var wire 1 |" B[13]~input_o $end
$var wire 1 }" inst13|inst|inst9~combout $end
$var wire 1 ~" B[12]~input_o $end
$var wire 1 !# inst12|inst|inst9~combout $end
$var wire 1 "# inst11|inst4|inst1~0_combout $end
$var wire 1 ## inst12|inst|inst10~combout $end
$var wire 1 $# inst12|inst4|inst1~0_combout $end
$var wire 1 %# inst13|inst19|inst2~combout $end
$var wire 1 &# inst13|inst|inst10~combout $end
$var wire 1 '# inst12|inst|inst11~combout $end
$var wire 1 (# inst11|inst4|inst1~combout $end
$var wire 1 )# inst12|inst4|inst5~0_combout $end
$var wire 1 *# inst12|inst4|inst2~0_combout $end
$var wire 1 +# inst12|inst4|inst5~1_combout $end
$var wire 1 ,# inst9|inst7|inst5~0_combout $end
$var wire 1 -# inst10|inst|inst1~combout $end
$var wire 1 .# inst10|inst5|inst5~0_combout $end
$var wire 1 /# inst8|inst|inst3~combout $end
$var wire 1 0# inst7|inst9|inst1~combout $end
$var wire 1 1# inst9|inst|inst2~combout $end
$var wire 1 2# inst6|inst10|inst5~0_combout $end
$var wire 1 3# inst7|inst|inst4~combout $end
$var wire 1 4# inst5|inst|inst6~combout $end
$var wire 1 5# inst4|inst12|inst1~combout $end
$var wire 1 6# inst6|inst|inst5~combout $end
$var wire 1 7# inst4|inst|inst7~combout $end
$var wire 1 8# inst3|inst13|inst5~0_combout $end
$var wire 1 9# inst3|inst|inst12~combout $end
$var wire 1 :# inst1|inst|inst13~combout $end
$var wire 1 ;# inst2|inst14|inst5~0_combout $end
$var wire 1 <# inst2|inst15|inst1~combout $end
$var wire 1 =# inst1|inst13|inst5~0_combout $end
$var wire 1 ># A[14]~input_o $end
$var wire 1 ?# inst2|inst16|inst1~combout $end
$var wire 1 @# inst3|inst14|inst1~0_combout $end
$var wire 1 A# inst4|inst13|inst1~combout $end
$var wire 1 B# inst6|inst11|inst1~0_combout $end
$var wire 1 C# inst7|inst10|inst1~combout $end
$var wire 1 D# inst9|inst8|inst1~0_combout $end
$var wire 1 E# inst10|inst7|inst1~combout $end
$var wire 1 F# inst11|inst|inst~combout $end
$var wire 1 G# inst11|inst4|inst5~1_combout $end
$var wire 1 H# inst11|inst6|inst1~0_combout $end
$var wire 1 I# inst12|inst5|inst1~combout $end
$var wire 1 J# inst13|inst4|inst2~0_combout $end
$var wire 1 K# inst11|inst5|inst5~0_combout $end
$var wire 1 L# inst10|inst7|inst5~0_combout $end
$var wire 1 M# inst8|inst8|inst5~0_combout $end
$var wire 1 N# inst7|inst9|inst5~0_combout $end
$var wire 1 O# inst5|inst11|inst5~0_combout $end
$var wire 1 P# inst4|inst12|inst5~0_combout $end
$var wire 1 Q# inst1|inst14|inst5~0_combout $end
$var wire 1 R# B[14]~input_o $end
$var wire 1 S# inst2|inst16|inst5~0_combout $end
$var wire 1 T# inst19~0_combout $end
$var wire 1 U# inst19~1_combout $end
$var wire 1 V# inst19~2_combout $end
$var wire 1 W# B[15]~input_o $end
$var wire 1 X# A[15]~input_o $end
$var wire 1 Y# inst19~3_combout $end
$var wire 1 Z# inst19~4_combout $end
$var wire 1 [# inst19~5_combout $end
$var wire 1 \# inst19~6_combout $end
$var wire 1 ]# inst19~7_combout $end
$var wire 1 ^# inst19~8_combout $end
$var wire 1 _# inst19~9_combout $end
$var wire 1 `# inst19~10_combout $end
$var wire 1 a# inst19~11_combout $end
$var wire 1 b# inst19~12_combout $end
$var wire 1 c# inst19~13_combout $end
$var wire 1 d# inst19~14_combout $end
$var wire 1 e# inst19~15_combout $end
$var wire 1 f# inst14|inst|inst9~combout $end
$var wire 1 g# inst13|inst4|inst1~0_combout $end
$var wire 1 h# inst19~16_combout $end
$var wire 1 i# inst19~combout $end
$var wire 1 j# inst14|inst19|inst~combout $end
$var wire 1 k# inst13|inst19|inst~combout $end
$var wire 1 l# inst12|inst19|inst~combout $end
$var wire 1 m# inst11|inst19|inst~combout $end
$var wire 1 n# inst10|inst19|inst~combout $end
$var wire 1 o# inst9|inst19|inst~combout $end
$var wire 1 p# inst8|inst19|inst~combout $end
$var wire 1 q# inst7|inst19|inst~combout $end
$var wire 1 r# inst6|inst19|inst~combout $end
$var wire 1 s# inst5|inst19|inst~combout $end
$var wire 1 t# inst4|inst19|inst~combout $end
$var wire 1 u# inst3|inst19|inst~combout $end
$var wire 1 v# inst1|inst19|inst~combout $end
$var wire 1 w# inst2|inst19|inst~combout $end
$var wire 1 x# inst|inst9~combout $end
$upscope $end
$upscope $end
$enddefinitions $end
#0
$dumpvars
b10101010 !
b11111111 "
02
11
10
0/
1.
0-
1,
0+
1*
0)
0(
1'
0&
1%
0$
1#
03
14
x5
16
17
18
19
0:
1;
0<
1=
0>
0?
1@
0A
1B
0C
1D
0E
1F
1G
0H
0I
0J
0K
1L
1M
1N
1O
0P
0Q
1R
0S
0T
1U
1V
1W
1X
0Y
0Z
1[
0\
0]
1^
1_
0`
0a
1b
0c
1d
0e
1f
1g
1h
1i
0j
1k
1l
1m
1n
1o
0p
1q
1r
1s
0t
0u
1v
1w
1x
0y
1z
1{
0|
0}
0~
0!!
1"!
1#!
0$!
0%!
0&!
1'!
0(!
0)!
0*!
1+!
1,!
0-!
0.!
1/!
00!
01!
12!
03!
04!
05!
06!
07!
08!
09!
1:!
0;!
1<!
0=!
0>!
1?!
1@!
1A!
0B!
1C!
0D!
1E!
1F!
0G!
0H!
1I!
1J!
0K!
0L!
1M!
0N!
0O!
1P!
0Q!
1R!
0S!
1T!
0U!
0V!
1W!
1X!
1Y!
1Z!
0[!
0\!
0]!
0^!
0_!
0`!
0a!
1b!
1c!
0d!
0e!
0f!
0g!
0h!
1i!
0j!
0k!
1l!
1m!
1n!
1o!
1p!
1q!
1r!
1s!
1t!
1u!
0v!
0w!
0x!
0y!
0z!
0{!
0|!
0}!
0~!
0!"
0""
0#"
0$"
1%"
0&"
0'"
0("
0)"
0*"
1+"
0,"
0-"
0."
1/"
00"
11"
02"
13"
04"
05"
16"
07"
18"
19"
0:"
0;"
1<"
0="
0>"
0?"
0@"
0A"
0B"
0C"
0D"
1E"
1F"
0G"
0H"
0I"
0J"
0K"
0L"
0M"
0N"
0O"
0P"
0Q"
0R"
0S"
1T"
0U"
1V"
0W"
0X"
0Y"
0Z"
0["
0\"
1]"
0^"
0_"
1`"
1a"
0b"
1c"
0d"
0e"
0f"
0g"
0h"
0i"
1j"
0k"
0l"
0m"
1n"
0o"
0p"
0q"
0r"
0s"
0t"
0u"
1v"
0w"
0x"
0y"
0z"
1{"
0|"
0}"
0~"
0!#
0"#
0##
0$#
0%#
0&#
0'#
0(#
1)#
0*#
0+#
0,#
0-#
0.#
0/#
10#
01#
12#
13#
04#
05#
06#
07#
08#
09#
0:#
1;#
0<#
0=#
0>#
0?#
0@#
0A#
0B#
0C#
0D#
0E#
0F#
1G#
0H#
0I#
0J#
0K#
0L#
0M#
0N#
0O#
0P#
0Q#
0R#
0S#
0T#
0U#
0V#
0W#
0X#
0Y#
0Z#
0[#
0\#
0]#
0^#
0_#
0`#
0a#
0b#
1c#
1d#
1e#
0f#
0g#
0h#
1i#
0j#
1k#
0l#
1m#
0n#
0o#
1p#
0q#
1r#
0s#
1t#
0u#
1v#
1w#
0x#
$end
#20000
b101010 !
b1010 !
b10 !
b0 !
b1 !
b1111111 "
b111111 "
b11111 "
b1111 "
b111 "
b11 "
b1 "
0U
0O
0x
02!
0L
0X!
0s!
1`
0b
0^
0M
0V
03#
0F"
0u!
0Z!
0:!
0{
0X
0W
0t!
0Y!
0<!
0#!
0n
0k
0g
0d
0[
0N
0+"
0i!
0M!
0@!
0'!
0s
0q
0m
0_
08"
0/"
0p!
0m!
1S!
0R!
0E!
1D!
0,!
0+!
0r
0w#
1x#
1H
0G
1u
0D!
1Q!
1H!
0n!
0q!
10"
0o
0l
0C!
0o!
0P!
01"
0l!
1?"
03"
1,"
1h!
0W!
0?!
1&!
1j!
1L!
0J!
1*"
0r!
0T"
14"
0f
0h
0b!
0"!
0c!
1&"
0%"
1f!
1R"
0E"
1("
02#
1S"
0c#
1C#
01
12
0v#
1u#
0t#
1s#
1C
0D
1E
0F
0d#
1D#
0C#
0S"
0R"
0("
0&"
0f!
1=!
0&!
0i
1?!
1$!
0w
1o"
1X"
0,"
0h!
1."
0A!
0I!
09"
00"
0T!
0v
1o!
1P!
1n!
0F!
00
1/
0.
1-
1n#
1q#
0r#
0u#
0E
0B
1A
1>
0S!
10"
0?!
0$!
0n!
0o!
0P!
1N!
0?"
0*"
1(#
0=!
04"
00#
0V"
0D#
1E#
0e#
1(
1+
0,
0/
1r#
0q#
0p#
1o#
1?
0@
0A
1B
1I#
0E#
0c"
0o"
0X"
0j!
0L!
0a"
06"
11"
1l!
00"
0N!
1,
0+
0*
1)
0i#
1l#
0n#
0r#
1q#
0s#
0C
1A
0B
0>
1<
09
01"
0l!
0."
19"
0(#
0{"
0I#
0#
1&
0(
0,
1+
0-
0q#
0m#
1j#
1:
0=
0A
09"
0+
0'
1$
0j#
0k#
0l#
1p#
0o#
0?
1@
0<
0;
0:
0$
0%
0&
1*
0)
0p#
0@
0*
#40000
b0 "
b11 !
b10 !
b10 "
0`
1b
0R
1U
1+!
0x#
0H
02
1v#
1F
10
#60000
b11 "
b11 !
1`
1R
0+!
1s
1x#
1H
1D!
12
0v#
0F
00
1u#
1E
1/
#80000
b111 !
b111 "
b101 !
b101 "
b100 "
b100 !
0R
0U
1O
0`
0b
1a
0s
1p
0x#
0H
1-!
0D!
02
1R!
0u#
0E
0/
1t#
1D
1.
#100000
b101 "
b101 !
1`
1R
1+!
1r
1x#
1v#
1F
1H
1D!
12
10
0v#
0F
00
1u#
1E
1/
#120000
b111 !
b111 "
b110 "
b110 !
0R
1U
0`
1b
1s
0x#
1v#
1F
0H
0D!
0-!
0u
02
10
1F!
0R!
0u#
0E
1S!
0/
0t#
0D
0.
1s#
1C
1-
#140000
b111 "
b111 !
1`
1R
1t
0s
1c
1D!
1x#
0v#
0F
1H
1-!
0D!
12
00
1u#
1E
1R!
1/
0u#
0E
0/
1t#
1D
1.
#160000
b1111 !
b1111 "
b1011 !
b1011 "
b1001 !
b1001 "
b1000 "
b1000 !
0R
0U
0O
1x
0`
0b
0a
1^
1'!
0c
0+!
0t
0r
0p
0x#
1v#
1F
0H
0-!
1u
1C!
02
10
0v#
0F
1T!
0F!
0R!
00
0S!
1n!
0t#
0D
0.
1r#
0s#
0C
1B
1,
0-
#180000
b1001 "
b1001 !
1`
1R
1s
1x#
1u#
1E
1H
1D!
1,!
12
1/
1R!
0u#
0E
0/
1t#
1D
1.
#200000
b1011 !
b1011 "
b1010 "
b1010 !
0R
1U
0`
1b
1+!
0s
1q
1_
0x#
1u#
1E
0H
1-!
0D!
02
1/
1v#
1F
0R!
1F!
10
0u#
0E
1S!
0/
0t#
0D
0.
1s#
1C
1-
#220000
b1011 "
b1011 !
1`
1R
0+!
1c
1x#
1u#
1E
1H
0-!
1*!
1o
12
1/
0v#
0F
1R!
00
1t#
1D
1.
#240000
b1111 !
b1111 "
b1101 !
b1101 "
b1100 "
b1100 !
0R
0U
1O
0`
0b
1a
1)!
1p
0c
0R!
0,!
1m
0q
0_
0x#
0u#
0E
0H
0o
1-!
0C!
1(!
0F!
0/!
02
0/
0t#
0D
1A!
0S!
1R!
1C!
0(!
0.
0T!
1o!
1P!
1t#
0s#
0C
1D
10"
0n!
1.
0-
0r#
1q#
1A
0B
0,
1+
#260000
b1101 "
b1101 !
1`
1R
1+!
1s
1r
1x#
1v#
1u#
1E
1F
1H
0-!
0u
12
10
1/
0v#
0F
1F!
0C!
1/!
1(!
0R!
00
1S!
0t#
0D
0.
1s#
1C
1-
#280000
b1111 !
b1111 "
b1110 "
b1110 !
0R
1U
0`
1b
1R!
1,!
1q
1_
0x#
1v#
0u#
0E
1F
0H
1-!
02
10
0/
1t#
1D
0R!
0F!
0/!
1.
1T!
0S!
0t#
0D
1n!
0.
0s#
0C
0-
1r#
1B
1,
#300000
b1111 "
b1111 !
1`
1R
1t
1c
1D!
1.!
1x#
0v#
1u#
1E
0F
1H
1R!
0-!
0*!
1o
12
00
1/
0u#
0E
1F!
0R!
0/
1t#
1D
1S!
1.
0t#
0D
0.
1s#
1C
1-
#320000
b11111 !
b11111 "
b10111 !
b10111 "
b10011 !
b10011 "
b10001 !
b10001 "
b10000 "
b10000 !
0R
0U
0O
0x
12!
0`
0b
0a
0^
1J
1>!
0q
0'!
0s
0m
0c
0_
0+!
0)!
0t
0r
0p
0.!
0,!
0x#
1v#
1u#
1E
1F
0H
1/!
1u
0D!
0o
1C!
1N!
02
10
1/
0v#
0F
11"
1l!
0C!
0(!
0F!
0A!
00
0u#
0E
0o!
0P!
0S!
0T!
19"
0/
0n!
00"
1p#
0s#
0C
1@
1*
0-
0q#
0r#
0B
0A
0+
0,
#340000
b10001 "
b10001 !
1`
1R
1q
1]
1x#
1t#
1D
1H
1-!
12
1.
1R!
1E!
1S!
0t#
0D
0.
1s#
1C
1-
#360000
b10011 !
b10011 "
b10010 "
b10010 !
0R
1U
0`
1b
1+!
0q
1n
1\
0]
0x#
1t#
1D
0H
1*!
1o
0-!
02
1.
1v#
1F
0R!
1F!
10
0S!
0Q!
0t#
0D
1n!
0.
0s#
0C
0-
1r#
1B
1,
#380000
b10011 "
b10011 !
1`
1R
0+!
1s
1q
1]
1x#
1t#
1D
1H
1-!
1D!
12
1.
0v#
0F
1R!
1G!
00
1u#
1E
1S!
1/
0t#
0D
0.
1s#
1C
1-
#400000
b10111 !
b10111 "
b10101 !
b10101 "
b10100 "
b10100 !
0R
0U
1O
0`
0b
1a
1B!
0s
1p
0G!
0E!
1j
0q
0n
0\
0]
0x#
1t#
1D
0H
0*!
0o
1C!
1(!
1Q!
0D!
1T!
02
1.
0T!
0H!
0F!
0u#
0E
0S!
1o!
1P!
0n!
0/
10"
0r#
0s#
0C
0B
0,
0-
1q#
1A
1+
#420000
b10101 "
b10101 !
1`
1R
1+!
1r
1q
1]
1S!
1E!
1x#
1v#
0t#
0D
1F
1H
0-!
0u
1D!
12
10
0.
1s#
0v#
0F
1C
0R!
0E!
1F!
1-
00
1u#
1E
1/
1t#
1D
1.
#440000
b10111 !
b10111 "
b10110 "
b10110 !
0R
1U
0`
1b
0S!
1E!
1s
0q
1n
1\
0]
0x#
1v#
0t#
0D
1F
0H
1*!
1o
0D!
0Q!
02
10
0.
0s#
0C
1n!
0C!
0(!
1v
0F!
0-
0u#
0E
1S!
1Q!
1H!
1A!
1T!
0/
1r#
1B
1,
1s#
1C
1-
#460000
b10111 "
b10111 !
1`
1R
1t
0s
1q
1c
1]
1D!
1x#
0v#
1t#
1D
0F
1H
0*!
0o
1l
0D!
12
00
1.
1u#
1E
1F!
1/
0u#
0E
0S!
0Q!
0H!
0/
0o!
0P!
0N!
1I!
0n!
0s#
0C
1j!
1L!
01"
0l!
00"
0-
0r#
0B
1."
09"
0,
0q#
0A
0+
0p#
1o#
1?
0@
0*
1)
#480000
b11111 !
b11111 "
b11011 !
b11011 "
b11001 !
b11001 "
b11000 "
b11000 !
0R
0U
0O
1x
0`
0b
0a
1^
1@!
1'!
0q
0c
0B!
0+!
0t
0r
0p
1S!
0E!
1%!
0j
0n
0\
0]
0x#
1v#
0t#
0D
1F
0H
0l
1(!
0v
0A!
10!
1Q!
1H!
1u
0T!
1o!
1P!
02
10
0.
1s#
0v#
0F
1C
10"
0F!
1C!
0(!
1-
00
1A!
00!
1T!
0S!
1q#
1A
1n!
0o!
0P!
1+
0s#
0C
00"
0-
1r#
1B
1,
0q#
0A
0+
#500000
b11001 "
b11001 !
1`
1R
1s
1q
1]
1x#
1u#
1t#
1D
1E
1H
1-!
1D!
1,!
12
1/
1.
1F!
0u#
0E
1S!
0/
1s#
1C
1-
